<svg version="1.1" viewBox="0 0 130.2 130.2" xmlns="http://www.w3.org/2000/svg">
 <g transform="translate(-31.069 -74.962)">
  <g transform="matrix(.64936 0 0 .64936 -113.91 243.01)">
   <rect x="223.26" y="-258.79" width="200.51" height="200.51" style="fill:none;paint-order:fill markers stroke;stroke-linejoin:round;stroke-width:3.1419"/>
   <path d="m285.2-258.79h138.57v138.57h-138.57z" style="fill-rule:evenodd;fill:#000000;paint-order:fill markers stroke;stroke-linejoin:round;stroke-width:1.7684"/>
   <g transform="rotate(240 304.97 -292.46)" style="fill:#ff5555">
    <path d="m162.6-248.06c-2.1607-.6986-4.3283-3.4581-7.1726-9.131-2.35-4.6871-3.8622-9.3978-4.9034-15.275-.6777-3.825-.56367-3.5719-1.6092-3.5719-1.3718 0-2.5057-.57259-3.6541-1.8452-1.437-1.5924-2.3977-3.8124-3.4992-8.0862-.52375-2.0321-1.1961-4.2651-1.494-4.9623l-.54175-1.2675-2.2779.20921c-2.3732.21799-2.843.22156-10.215.0779l-4.4979-.0876-6.0854 1.2841c-5.6758 1.1976-6.3526 1.2852-10.054 1.3001-3.8522.0156-4.0115-.006-5.424-.7325-1.8157-.9339-2.2918-1.3604-3.0041-2.6911-.48882-.91321-.56156-1.4574-.53048-3.9688.0325-2.6246.16839-3.3891 1.3839-7.7842.96454-3.4877 1.4681-5.9333 1.7706-8.599.5326-4.6936 1.1866-6.6807 3.7951-11.53 2.54-4.7224 2.7733-5.3098 2.7896-7.0252.0175-1.8409-1.0721-3.4193-4.3039-6.2344-4.4777-3.9003-5.1689-5.6468-4.4145-11.154.53371-3.8962.41946-5.3454-.5521-7.0033-.37536-.64051-2.4695-3.0149-4.6536-5.2764-5.2566-5.4429-7.0926-8.3391-7.9021-12.464-1.0804-5.5064 1.5294-9.9059 9.4038-15.852 3.4122-2.5768 5.6217-3.9016 10.221-6.1286 2.3818-1.1532 4.8808-2.5194 5.5532-3.036 2.6417-2.0297 3.6937-4.6384 4.3322-10.743.48489-4.6356 1.0314-6.9448 2.5234-10.662 3.1008-7.7248 6.2088-10.945 11.766-12.19 1.0186-.22828 5.1263-.72805 9.1281-1.1106 7.2294-.69107 13.702-1.7722 22.922-3.8288 7.0641-1.5757 8.2961-2.0758 13.504-5.4821 1.7402-1.1381 3.729-2.3654 4.4194-2.7272 1.1633-.6096 1.2797-.62504 1.5875-.2106.3065.41265.51476.37475 2.6931-.4901 5.4203-2.152 8.9682-2.1617 15.3-.0418 4.2181 1.4122 7.0543 3.0385 11.672 6.6932 1.3097 1.0365 2.8692 2.2612 3.4655 2.7216.59633.46042 2.46 1.5597 4.1414 2.4428 3.602 1.8919 5.2187 3.3803 7.3573 6.7736 3.3125 5.2559 5.7023 7.8919 10.039 11.073 3.0468 2.2352 5.4906 3.2589 12.303 5.1538 5.7101 1.5883 8.7668 3.0953 12.348 6.0874 3.6971 3.0893 6.4028 6.0459 7.449 8.1395 1.1698 2.3411 1.5744 3.6192 2.6675 8.4277 1.4464 6.3622 2.4559 9.5318 4.2514 13.348.92433 1.9645 1.8757 4.1593 2.1141 4.8772.98234 2.958.99901 7.1582.0406 10.234-.20915.67115-1.3435 3.1299-2.5207 5.4639s-2.5703 5.3568-3.0956 6.7172c-2.0283 5.2527-3.7195 7.814-8.185 12.395-1.9148 1.9645-3.693 3.9828-3.9517 4.485-.68715 1.3342-.56765 3.0923.49541 7.289 1.4384 5.6782 1.8379 8.4901 1.8607 13.097.0174 3.4993-.0711 4.4504-.60259 6.4823-.8897 3.401-2.0804 5.4905-4.8481 8.5081-1.3138 1.4324-2.7451 3.0806-3.1806 3.6627-1.0815 1.4454-2.9593 5.2034-4.429 8.8635-2.5464 6.3416-3.5165 7.2012-12.793 11.336-4.5098 2.01-6.504 3.2469-9.4485 5.8605-3.5436 3.1453-5.343 4.0827-8.4632 4.4088-2.8966.30277-7.0511-1.0812-11.248-3.7472-2.2255-1.4136-7.8002-5.632-12.13-9.1789l-3.6633-3.0009-1.8337.91022c-1.3976.69377-2.1867.91522-3.318.93131l-1.4842.0212-3.4038 6.9674c-4.9091 10.049-7.5727 14.533-10.656 17.94-2.2689 2.5072-5.0727 3.6427-7.2537 2.9375zm3.3132-1.241c1.5895-.72165 4.1963-3.4486 6.2181-6.5046 2.1042-3.1806 4.2152-7.0937 7.9349-14.709l2.7948-5.7215-.86208-.41111c-1.5217-.72564-2.7043-1.9984-4.9203-5.2954-4.0861-6.0796-5.0438-7.0599-6.897-7.0599-1.1974 0-2.4283.80841-7.1092 4.6692-2.1161 1.7454-4.8112 3.9084-5.9891 4.8068-2.1468 1.6374-4.9834 3.224-5.7641 3.224-.2947 0-.3783.17434-.28545.59531.0722.32743.25987 1.3692.41702 2.3151.50793 3.0573 1.8658 8.2698 2.8259 10.848 1.8022 4.8395 4.8524 10.325 6.7217 12.089 1.8274 1.724 3.035 2.0076 4.9148 1.1542zm54.908-14.517c.91389-.45382 2.8522-1.8624 4.3074-3.1302 3.5596-3.1011 4.8395-3.8857 10.502-6.4375 8.6889-3.9156 9.2349-4.4341 11.988-11.384 2.1784-5.4986 3.5792-7.7518 7.3932-11.892 4.1673-4.5237 5.273-7.5235 5.2718-14.302-.00079-4.5028-.31911-6.7158-1.834-12.753-1.0069-4.0125-1.1573-6.4336-.4976-8.0124.23558-.56383 1.9322-2.5522 3.9629-4.6445 4.378-4.5107 6.0554-7.0098 8.0632-12.014.82247-2.0498 2.3386-5.3326 3.3692-7.2951 2.3786-4.5294 3.01-6.5348 3.0395-9.6537.0284-3.0014-.40122-4.527-2.5706-9.1281-1.8964-4.0222-3.0613-7.6511-4.5014-14.023-1.7226-7.6219-2.579-9.3101-6.7478-13.301-5.8215-5.5731-8.1386-6.8454-17.017-9.3441-4.4002-1.2384-7.6908-2.6004-9.8179-4.064-.66601-.45822-1.2109-.78227-1.2109-.7201 0 .0622.32742.81202.7276 1.6664l.72761 1.5533v10.716c0 10.359.0186 10.755.55979 11.906.94141 2.0023 2.67 4.0654 4.7836 5.7092 5.6684 4.4085 6.4754 5.4772 7.877 10.43.39117 1.3824.93348 3.0196 1.2051 3.6382.62487 1.4229 2.5939 3.5106 5.8615 6.2147 5.6565 4.6811 7.7769 8.9907 6.065 12.327-1.715 3.343-9.1381 8.1789-17.753 11.566-4.8599 1.9106-7.1454 3.0593-8.4733 4.259-1.6349 1.4771-1.4358 2.3454 1.6085 7.0142 4.9268 7.5558 5.5748 10.545 4.3636 20.128-.73831 5.8419-1.0748 7.1801-2.1648 8.6092-1.9064 2.4994-5.343 3.068-11.591 1.9178-5.0812-.93552-6.2034-.69221-7.9314 1.7198-2.2855 3.1901-4.4364 3.2684-10.594.3856-5.5773-2.6109-6.527-2.2064-9.0042 3.8351-.53503 1.3048-1.2827 2.9122-1.6615 3.5719-.89571 1.5598-5.3889 7.493-6.7682 8.9374-.65082.68146-.97352 1.2126-.82038 1.3501 2.9928 2.6878 12.216 9.8148 15.267 11.798 5.9413 3.8609 10.219 4.7287 14.015 2.8434zm-32.592-13.971c1.6709-.9094 3.8922-3.2572 7.0775-7.4805 2.5553-3.388 3.4792-4.991 4.816-8.3562 1.1438-2.8795 1.9023-3.9561 3.2448-4.606 1.9149-.927 2.8852-.74179 7.7384 1.477 3.4627 1.5831 5.3902 1.9868 6.5316 1.3679.36825-.19965 1.1924-1.0066 1.8315-1.7931.63907-.78658 1.4844-1.6693 1.8786-1.9617 1.0425-.77335 3.0592-.84246 6.5594-.22487 6.18 1.0905 7.9649.99867 10.058-.51747 1.7794-1.289 2.2387-2.6573 3.053-9.095.62232-4.9197.67033-5.8442.41912-8.0698-.44193-3.9151-1.4136-6.3097-4.4019-10.848-3.081-4.6791-3.5599-6.1601-2.5351-7.8407 1.0057-1.6493 3.4648-3.0287 10.076-5.6517 4.6688-1.8525 6.9487-3.0198 10.716-5.4865 4.5332-2.9685 6.1966-4.6832 6.593-6.7963.43601-2.3241-2.0696-6.0286-6.593-9.7478-2.71-2.2281-4.7795-4.3715-5.4879-5.6838-.37382-.69244-1.0496-2.5466-1.5018-4.1204s-1.0719-3.351-1.3772-3.9493c-.74072-1.4519-2.799-3.5925-5.43-5.6471-2.7787-2.17-4.6744-4.3065-5.7316-6.4599l-.84434-1.7198.093-9.8539c.11398-12.081-.0488-13.058-2.5996-15.609-2.2334-2.2334-5.146-3.0126-11.281-3.0182-4.9095-.005-8.6758.519-14.126 1.9634-3.6308.96219-4.4506 1.0886-7.1493 1.1024-2.9202.015-3.1218-.0206-4.7968-.84519-1.4269-.70245-2.2777-1.4289-4.6246-3.9485-3.2637-3.5038-5.0598-4.7938-7.9045-5.6768-2.062-.64008-2.112-.67496-1.7613-1.2276.16878-.26595.5984-.21983 2.0465.21969 3.1044.94223 5.0384 2.2858 8.2995 5.7655 3.7579 4.0098 4.7766 4.6064 8.1198 4.7552 2.1597.0961 2.8606-.006 6.6146-.96552 7.2214-1.8455 8.5228-2.0171 15.179-2.0022 5.1913.0116 6.1799.0818 7.7251.54869l1.772.53538-1.332-1.482c-.73258-.81508-2.4352-3.1488-3.7836-5.1861-3.037-4.5885-4.438-5.9316-8.2523-7.9116-1.9255-.99952-4.1693-2.4938-6.4823-4.317-5.7613-4.5411-7.613-5.6551-11.934-7.1791-6.4042-2.2588-10.123-2.1173-16.198.61623-1.442.64888-1.603.67204-1.895.27267-.40551-.55458-.68788-.41529-5.3702 2.6491-1.8964 1.2411-4.0106 2.4977-4.6982 2.7924-2.4923 1.0683-6.7324 2.15-15.025 3.8331-7.1843 1.4581-9.6517 1.8362-16.404 2.5136-11.377 1.1414-12.511 1.4748-15.637 4.599-3.7939 3.7914-6.8161 11.466-7.4038 18.8-.41502 5.1792-1.4713 8.1115-3.7263 10.344-1.0888 1.0781-2.5299 1.9451-7.1868 4.3237-6.4365 3.2876-10.802 6.2924-14.594 10.044-4.3359 4.2908-5.248 8.57-2.9206 13.703 1.2559 2.7698 2.6104 4.5382 6.769 8.8377 3.0027 3.1044 4.2017 4.5443 4.8286 5.799.98245 1.9661 1.0269 2.764.40566 7.2795-.40598 2.9508-.40626 3.2893-.004 4.6736.53408 1.8372 1.8833 3.5814 4.2968 5.5547 2.517 2.0579 4.3375 4.4198 4.3375 5.6274 0 .22551.11906.41001.26458.41001.14553 0 .26459-.14339.26459-.31864 0-.17526.78765-1.611 1.7503-3.1905 2.8656-4.7016 2.9847-5.9676.82323-8.7461-6.3526-8.1661-10.005-13.152-10.582-14.444-.733-1.6424-.73498-4.0742-.004-5.4475.73833-1.3879 3.0457-3.5938 6.1606-5.8897 2.7354-2.0162 4.3696-3.6217 5.2284-5.1368.63047-1.1122 2.3021-5.7249 3.483-9.6109 1.3201-4.344 2.9468-6.5707 7.3496-10.06 3.3745-2.6745 3.754-3.1282 5.6454-6.7506.87657-1.6788 2.3147-4.0005 3.1958-5.1594 3.5257-4.6369 4.4275-5.9167 5.9366-8.4248 2.0483-3.4043 3.4829-4.9863 5.3554-5.9059 1.3936-.68437 1.7411-.73998 4.5515-.72841 4.1289.017 10.426.99374 14.684 2.2778 1.9802.59706 4.2948 1.104 5.4551 1.1947 1.7785.13909 2.183.0809 3.4396-.49451.78322-.35868 2.6147-1.6973 4.0699-2.9748 3.0004-2.6338 5.1562-4.0157 5.4772-3.5106.32665.51397.27435.58647-1.0454 1.4492-.69122.45183-2.3879 1.7976-3.7703 2.9905-3.3923 2.9273-4.756 3.5567-7.6729 3.5413-1.8554-.01-2.8972-.20631-5.9531-1.1231-4.0171-1.2052-11.498-2.4333-14.836-2.4356-3.9179-.003-5.806 1.3777-8.9567 6.5486-1.0867 1.7834-2.5478 3.9713-3.2469 4.862-2.7896 3.5539-4.5835 6.2206-5.7653 8.5703-1.4392 2.8614-2.4445 4.1152-4.867 6.0699-4.6618 3.7616-7.0371 6.7457-8.0015 10.053-.97945 3.3583-1.614 5.2629-2.6701 8.0148-1.2763 3.3255-2.4415 4.6935-6.8179 8.0042-7.1484 5.4077-7.6026 7.4281-2.9812 13.262.84983 1.0728 2.3924 3.1412 3.428 4.5964s2.5488 3.4197 3.3628 4.3656c2.0437 2.375 2.8004 3.9568 2.8004 5.8536 0 1.6117-.29114 2.2867-3 6.9561-1.5092 2.6014-1.981 4.4675-1.5194 6.0084.9136 3.0493 7.3848 6.8802 15.606 9.2388 6.578 1.8872 6.666 2.0197 6.7516 10.175.0537 5.1095.10783 5.6828.67367 7.1304.71667 1.8334 2.229 3.5528 4.8037 5.4615 1.8748 1.3898 3.3821 3.1871 4.0862 4.8722.22631.54166.88187 2.7869 1.4568 4.9895 1.2631 4.8391 2.2206 6.9098 3.8641 8.3564 1.1087.97586 1.349 1.0722 2.6745 1.0722 2.7297 0 4.911-1.3547 13.23-8.2167 4.518-3.7267 6.2007-4.7479 7.8236-4.7479 2.196 0 3.3942 1.1446 7.3399 7.0115 3.2939 4.8977 5.1606 6.3541 7.8391 6.1157.81182-.0723 1.9385-.42537 2.7276-.85487zm-6.4935-9.7768c-2.6538-1.8009-4.8218-5.8886-6.7263-12.682-1.8416-6.5691-2.4078-7.8052-3.575-7.8052-.30991 0-1.241.23813-2.069.52917-.82807.29104-1.9161.52917-2.4179.52917-1.1895 0-2.3766-.99899-2.9171-2.4549-.32884-.88572-1.2049-5.4706-1.2098-6.3316-.00053-.10314-.62614.12996-1.3901.51799-.96181.4885-1.9259.73777-3.1344.81039-1.6315.0981-1.8041.0533-2.6459-.68579l-.90053-.79068-2.6458 1.5739c-5.8458 3.4774-9.486 4.8231-11.453 4.2339-.87454-.26202-1.1747-.53405-1.6323-1.4792-.52021-1.0746-.55515-1.5179-.48461-6.1474l.076-4.9893-.70532-1.1997c-.38793-.65985-1.3145-1.7695-2.059-2.4659-1.312-1.2273-2.0484-1.626-5.967-3.2315-2.3285-.95402-5.5468-3.1137-6.5833-4.4178-.62677-.78859-.81549-1.3236-.90543-2.567-.13579-1.8773.25708-2.8172 3.7083-8.8722 1.2442-2.1828 2.5998-4.9212 3.0125-6.0854.41269-1.1642 1.2503-2.8473 1.8613-3.7403 1.705-2.4918 1.9543-3.1172 2.122-5.3251.15408-2.0281.14053-2.0859-1.4536-6.2005-.88503-2.2844-2.733-6.6897-4.1066-9.7896-2.6528-5.9868-3.192-7.505-3.4776-9.7903-.51478-4.1202 2.1632-6.8326 7.6985-7.7973 3.4258-.59704 11.751-.14527 15.719.85296 1.528.38444 3.4544.71713 4.2809.73932 2.2717.061 2.8637-.62959 4.2153-4.9166 2.8955-9.184 5.4888-13.612 8.8097-15.041 1.6887-.72666 5.2704-.78995 7.8295-.13836 2.1091.53699 8.5003 3.619 8.3524 4.0277-.0715.19754.73821.35812 2.433.48252 3.1938.23445 4.5281.68314 6.6228 2.2271 4.5772 3.3739 4.288 3.212 5.7384 3.212.82683 0 2.2879-.31792 3.7251-.81057 1.3006-.44581 3.5118-1.0376 4.9137-1.3151 1.4019-.27751 3.8427-.81648 5.424-1.1977 3.4742-.83757 6.9059-1.0975 8.5636-.64864 1.67.45222 3.6988 2.5386 4.5056 4.6335.51919 1.3481.6126 2.0862.61948 4.8948.005 1.918-.19135 4.5838-.46672 6.3462-.62434 3.9957-.60259 5.3613.10113 6.3496.30601.42975 1.7118 1.4544 3.124 2.277 6.4443 3.754 8.7038 6.4107 8.1368 9.5673-.098.5457-.96853 2.4181-1.9344 4.161-2.1381 3.8578-2.2297 4.5751-.74784 5.8561.55461.47942 1.8584 1.3735 2.8972 1.9868 2.9651 1.7506 5.4945 3.5246 6.7051 4.7029 1.8339 1.785 1.8525 3.8105.0514 5.6116-1.269 1.269-6.3405 3.7634-10.421 5.1254-1.599.53376-2.94 1.0032-2.98 1.0432s.30205.53757.76018 1.1056c1.2208 1.5138 2.4281 4.2296 2.4566 5.5262.0331 1.5021-.50821 2.4102-1.8047 3.0281-1.1484.54727-4.3601 1.0775-6.5266 1.0775h-1.306l.81881 1.4509c1.101 1.9509 1.5008 3.553 1.9816 7.9418.93121 8.5002.84025 9.4046-1.0941 10.879-.89679.68361-1.1939.7595-2.8724.73364-1.2308-.019-2.8817-.31592-4.8191-.86684-3.2728-.93066-4.631-1.0774-5.2462-.56694-.22665.1881-.7885 1.0482-1.2486 1.9114-1.0594 1.9876-1.8172 2.594-3.242 2.594-1.5465 0-3.2463-.93958-6.4986-3.5922-2.9338-2.3928-5.2206-3.737-5.9086-3.473-.6018.23093-.9144 1.6805-1.5044 6.976-1.207 10.833-3.6949 19.539-6.2166 21.753-1.2118 1.064-2.5422 1.1132-3.9666.14658zm3.572-1.3438c2.1796-2.4824 4.4485-10.96 5.552-20.745.30182-2.6763.68594-5.3239.85361-5.8835.40807-1.362 1.3769-2.113 2.4419-1.8927 1.2618.26097 3.4717 1.5925 5.6929 3.4301 5.3608 4.4351 6.7561 4.6353 8.4733 1.2158.32039-.63801.86419-1.4417 1.2084-1.7859.87386-.87385 2.5058-.82302 6.0942.18982 3.8542 1.0879 5.3138 1.2294 6.5634.63641 2.0624-.97867 2.1095-1.5621.96235-11.909-.28359-2.5579-.82908-4.2904-1.935-6.1457-.95255-1.598-1.2506-1.6673-4.1558-.9662-3.7187.89744-6.7302.32253-11.9-2.2718-1.4534-.72934-2.6958-1.3261-2.761-1.3261s.15874.68461.49766 1.5214c.33892.83675 1.0734 2.9501 1.6322 4.6964.87344 2.7296 1.0164 3.5175 1.0189 5.6167.003 2.4068-.009 2.454-.86266 3.3073-.78144.78146-1.0129.86423-2.3812.85135-1.075-.0101-1.9956-.23182-3.1664-.76243-1.14-.51668-1.754-.66775-1.9844-.48829-.18351.14293-1.2862.59476-2.4503 1.0041-3.4814 1.224-3.4109 1.0891-4.6214 8.847-1.3071 8.377-2.5652 12.243-4.272 13.125-.46499.24046-1.0919.35648-1.446.2676-2.7482-.68977-5.4822-8.9977-6.8277-20.748-.34622-3.0236-.43317-3.3292-1.167-4.101-.43609-.45871-1.1411-1.5315-1.5667-2.384l-.77378-1.55-.73773.88858c-1.1576 1.3943-3.563 3.8578-6.7317 6.8942l-2.9141 2.7924.53536 3.0094c.91574 5.1476 1.5907 5.9975 4.181 5.2641.66343-.18783 1.6501-.46847 2.1926-.62365 2.0547-.58772 3.2174.54462 4.2839 4.172.34516 1.1739 1.0624 3.6227 1.594 5.4417 1.3316 4.5569 2.9737 7.8632 4.8778 9.8212 1.8891 1.9426 2.7065 2.0633 3.9993.59092zm.4822-11.14c1.2894-1.815 2.1442-4.9988 3.2386-12.063.83966-5.4199 1.3585-7.3052 2.2214-8.0726.29778-.26481 1.3153-.75479 2.2612-1.0889 3.3957-1.1993 3.382-.91821.12733-2.6116-3.3583-1.7472-4.9598-2.8066-6.9027-4.5661-1.7863-1.6177-2.3418-1.9209-2.7088-1.4787-.15361.18509-.7493 1.3587-1.3238 2.608-1.0931 2.3773-1.3959 2.7461-2.0485 2.4957-.31463-.12073-.33502-.26503-.0996-.70493.27127-.50687.2501-.52854-.25318-.2592-1.0382.55562-1.7889-.21932-2.4245-2.5028-.23455-.8426-.18857.0953.16689 3.4043l.16674 1.5522.837-.14068c.46035-.0774 1.03-.21719 1.2659-.31069.2719-.10778.49208-.005.60154.27994.22043.57444.23838.56126-1.3092.96165-1.5027.38878-1.4191-.17164-.76089 5.1011.8753 7.0121 2.7207 14.002 4.3787 16.586 1.1267 1.7558 1.7534 1.9537 2.5658.81034zm-40.036-12.205c3.8924-1.824 8.3884-4.5363 8.225-4.962-.0785-.20447-.60498-1.054-1.17-1.8878-.56506-.83384-1.3449-2.1891-1.733-3.0116-.38812-.82253-1.0031-1.6904-1.3667-1.9286-.36357-.23822-1.6999-.55441-2.9696-.70266-3.0338-.35421-3.875-.64167-4.6811-1.5997-1.3116-1.5588-.89174-3.3189 2.1377-8.9615 2.3738-4.4215 2.63-5.1579 2.084-5.9911-.48595-.74166-3.3438-2.1246-7.0085-3.3914-4.7656-1.6474-6.0854-2.7111-6.0854-4.9047 0-1.4563.39417-2.494 2.0001-5.2655.91034-1.5711 1.2232-2.4352 1.44-3.9776.33896-2.4113 1.3805-4.3817 3.7424-7.08.91798-1.0487 2.2075-2.9471 2.8657-4.2187 1.0442-2.0174 1.3483-2.3888 2.3872-2.9157.65485-.33205 2.0836-.73227 3.175-.88937 2.8413-.40897 2.7037-.27502 2.085-2.0298-.76096-2.1581-.96293-5.537-.39646-6.6324.2385-.46119.65682-.95799.92962-1.104.2728-.146.5785-.59601.67934-1 .89284-3.5771 4.0024-4.2174 8.9749-1.8483 1.4383.68529 2.6636 1.246 2.7228 1.246s.0291-1.3395-.067-2.9766c-.27906-4.7564.40372-6.2113 3.2096-6.8392 1.2157-.27205 1.5889-.25393 2.582.12533.63851.24385 1.4329.73286 1.7653 1.0867.56525.60169.6526.61838 1.3496.25792.4099-.21196 1.4564-.38539 2.3256-.38539 1.6591 0 2.3094.34979 5.0195 2.7.79901.69293.94042.732 1.4552.40214 1.1612-.74406 4.5956-2.0156 5.918-2.191 1.8151-.24078 3.3654.48335 4.3779 2.0449.39893.61524.72532 1.2734.72532 1.4625 0 .18916.27116.34392.60259.34392.87624 0 1.6259.61894 2.4473 2.0205.68374 1.1667.7151 1.3623.56264 3.5102-.14027 1.976-.0839 2.4651.42908 3.7264.3248.79847.76871 1.4856.98646 1.5268.21774.0413 1.4675-.70752 2.7772-1.664 3.198-2.3356 5.3684-3.3942 6.6515-3.2444.64971.0759 1.7167-.1387 3.121-.62756 2.3641-.823 4.6952-.96762 7.4346-.46122 4.9539.91579 5.5113 3.1185 2.3854 9.4266-.95595 1.9291-1.7332 3.8486-1.7332 4.2804 0 .75714.05.78841 1.5214.95136 5.2914.58599 7.5252 1.8006 7.0756 3.8472-.21324.97086-1.4008 2.3978-2.6254 3.1547-.74685.46158-.89297.72751-1.0285 1.8717-.21412 1.8079-1.287 3.6873-3.4218 5.9942-.98227 1.0614-1.7859 2.0236-1.7859 2.1382 0 .53241.97001 1.4626 2.9757 2.8535 1.201.83287 2.898 2.1147 3.7712 2.8485.87312.73381 1.7854 1.5003 2.0274 1.7034.99412.8343 11.64-3.5687 13.915-5.7554 1.6738-1.6084 1.5813-2.3343-.55598-4.3616-.92335-.87584-2.8581-2.2974-4.2995-3.1591-3.8954-2.3287-4.9876-3.1903-5.6666-4.4704-.60615-1.1426-.6081-1.174-.15808-2.5498.25059-.76613.99304-2.2783 1.6499-3.3603 1.4908-2.4559 1.951-3.5465 1.951-4.6237 0-1.9762-2.3615-4.4369-6.6806-6.9612-3.5033-2.0475-4.1765-2.5685-4.7359-3.6649-.62851-1.232-.5976-2.8313.17843-9.2337.43429-3.583.45786-4.4159.17215-6.082-.41173-2.401-1.4684-4.3329-2.9409-5.3769-.98351-.69728-1.3827-.80478-3.2841-.88451-1.5637-.0656-2.8243.0675-4.5415.47931-1.3073.31354-4.0438.91389-6.0811 1.3341-2.0373.42022-4.7162 1.1249-5.9531 1.566-2.4718.88142-4.5029 1.0387-5.8955.45643-.46826-.19578-1.7468-1.0764-2.8411-1.9569-1.0943-.88053-2.4772-1.855-3.073-2.1656-1.2148-.63321-3.5026-1.0739-5.5868-1.0762-.93246-.001-1.39-.11024-1.392-.33226-.003-.37453-5.9833-3.3362-8.1991-4.0607-.96717-.31625-2.2982-.48045-3.9688-.48959-2.3109-.0127-2.6292.0502-3.9484.78-.78914.43656-1.7851 1.27-2.2133 1.8521-1.4384 1.9555-3.8616 7.2741-5.2593 11.543-1.574 4.808-2.2905 5.9246-4.0572 6.3233-1.1908.26874-3.1577.0131-6.2177-.80811-4.0692-1.0921-13.785-1.3226-16.841-.39969-2.0361.61491-3.8266 1.9237-4.5241 3.307-1.0928 2.167-.69953 4.0542 2.2281 10.694 1.0986 2.4916 2.9597 6.9113 4.1356 9.8218l2.1381 5.2917-.0228 2.5135c-.0264 2.9089-.18398 3.4056-1.9308 6.0854-.71143 1.0914-1.6088 2.863-1.9943 3.9369-.38542 1.0739-1.9602 4.2291-3.4994 7.0115-3.1458 5.6864-3.5924 6.8258-3.2133 8.1986.53597 1.9411 3.977 4.2814 9.6333 6.5516 1.7426.69944 2.4217 1.1578 3.8427 2.594 2.68 2.7086 2.7444 2.9238 2.6787 8.9447-.0712 6.519.1205 7.023 2.6067 6.8536.70548-.048 2.1609-.53575 3.5719-1.1969zm14.679-3.7329c1.7778-.90699 4.1731-2.9087 7.7115-6.4447 4.0135-4.0106 5.4818-5.8512 4.8586-6.0904-.53582-.20562-1.0202.006-3.1287 1.3663-2.8255 1.823-6.7134 3.5658-8.2375 3.6926-.73193.0609-1.8364.29504-2.4544.52034-1.528.55705-4.602.34635-5.5813-.38255-.59231-.44087-.71588-.75757-.78238-2.0053-.10421-1.9553.77186-4.1644 1.5689-3.956.35926.0939.46905.27201.34861.56539-.0967.23554-.4094 1.1051-.69491 1.9324-.80565 2.3345-.0914 3.126 2.8208 3.126 2.0998 0 2.3328-.13731 1.8423-1.0857-.21888-.42326-.51767-1.7243-.66398-2.8912-.14632-1.1669-.61901-3.0789-1.0504-4.249-.43143-1.1701-.86036-2.8042-.9532-3.6315-.22694-2.0222-.4185-2.3177-2.0241-3.1215-1.8678-.93513-3.028-1.8392-3.4597-2.6957-.19788-.39266-.4334-1.8855-.52336-3.3174-.20509-3.2643-.0787-3.5292 2.868-6.0106 1.237-1.0417 2.2491-1.9309 2.2491-1.9761s.0683-.26011.15175-.47761c.10367-.27016-.33638-.72701-1.3891-1.4421-2.265-1.5385-6.3424-5.5191-6.9598-6.7944-.76887-1.5883-.68964-2.4213.32696-3.4379.686-.686 1.215-.92274 2.6014-1.1642.95713-.16668 2.0188-.30305 2.3592-.30305.34043 0 .81289-.17551 1.0499-.39003.23703-.21451.8925-.48591 1.4566-.60311s1.0615-.32865 1.1053-.46988c.0438-.14122-.746-1.3726-1.7552-2.7363s-1.8722-2.5918-1.918-2.7289c-.12204-.36614-4.81.44738-5.9733 1.0366-.78187.39599-1.2161.95011-2.1683 2.7667-.65484 1.2494-1.825 2.9696-2.6005 3.8227-2.254 2.4799-3.4136 4.6469-3.8623 7.217-.29737 1.7034-.65508 2.6731-1.5615 4.2331-3.0725 5.288-2.6134 6.2879 3.9331 8.5666 3.6179 1.2593 6.0611 2.3981 6.861 3.1979.51906.51906.66982.93891.66982 1.8654 0 .98452-.41743 2.0097-2.3644 5.8071-2.3746 4.6314-2.856 5.9734-2.5624 7.1433.22365.89111 1.6467 1.4825 4.2096 1.7494 3.3029.34398 4.1549.8259 5.0979 2.8836.37849.82592 1.4968 2.6698 3.6674 6.0468 1.0777 1.6767 2.745 1.9705 4.911.86553zm43.541-5.9439c1.0255-1.0255.96405-2.4793-.30228-7.1558-.74432-2.7487-1.4372-4.4565-3.4499-8.5028-1.7958-3.6102-2.4936-5.2806-2.4319-5.8208.0805-.70432.17696-.7634 1.3701-.83938.70592-.045 2.364.10387 3.6846.33073 2.9754.5111 5.7371.56085 5.2712.095-.42707-.42707-.39969-.65268.10262-.84543.25141-.0965.59671.0546.85989.37629l.43979.53751 1.1897-.60304c2.0714-1.05 2.496-3.2078 1.0296-5.2322-1.154-1.593-1.5579-2.6862-1.5579-4.2167 0-1.0974.13757-1.4789.80897-2.2436 1.0899-1.2414 3.6394-2.8775 7.8528-5.0397 3.3494-1.7188 3.4952-1.8276 3.3375-2.4914-.28149-1.185-.89574-1.9565-2.9752-3.7368l-2.0088-1.7198h-3.706c-2.0383 0-5.106.10683-6.8172.2374-2.8254.2156-3.1595.19361-3.638-.23944-.2898-.26227-.52691-.73156-.52691-1.0429s.9259-2.4727 2.0576-4.803c2.0732-4.2692 2.9067-6.3416 2.6526-6.5957-.24084-.24084-8.6549 4.027-10.085 5.1153-2.3924 1.8208-3.0667 2.0142-3.5932 1.0305-.26601-.49705-.22693-1.2098.21212-3.8687l.5382-3.2594-.62386-1.0922c-.34313-.60072-.83053-1.7471-1.0831-2.5474-.25257-.80037-.54891-1.5536-.65853-1.6738-.27921-.30624-2.6036 2.0824-3.8422 3.9486-2.0769 3.1289-3.838 8.2924-5.4152 15.877-.44304 2.1304-.87016 3.9781-.94914 4.1059-.32864.53175-1.1313.21877-1.2701-.49524-.0778-.40018-.5671-2.963-1.0874-5.6952-1.4708-7.724-3.4406-14.024-5.8561-18.731-1.8312-3.5682-1.6557-3.4556-3.173-2.0359-.8956.83805-1.651 1.94-2.4553 3.5818-.78761 1.6078-1.4053 2.5153-1.9182 2.8183-.66474.39267-.7565.60055-.7565 1.7138 0 2.5815-1.2877 2.7161-6.0541.63283-2.9531-1.2907-5.0739-1.6941-6.0788-1.1562-.74799.40031-.76201 2.1186-.0379 4.6505.56729 1.9837.67573 3.5974.29017 4.3178-.18336.34262.21212 1.078 1.6991 3.1591 3.3026 4.6223 3.1025 5.1698-2.1103 5.7764-1.8626.21673-3.7838.56001-4.2692.76283-1.0403.43465-1.378 1.3698-.90605 2.5091.40251.97174 5.275 5.7172 6.9443 6.7633 1.661 1.0409 2.0337 1.9248 1.304 3.0934-.29879.47855-1.1773 1.3724-1.9523 1.9863-.77499.6139-1.7917 1.511-2.2594 1.9935l-.85034.87733.17078 2.6c.20524 3.1245.50123 3.5855 3.2186 5.0135 1.0027.52692 1.9714 1.1367 2.1526 1.3551.18122.21836.42902 1.2622.55066 2.3197s.5295 2.6744.90635 3.5932c.37686.91881.85318 2.7896 1.0585 4.1574.37247 2.4812.73471 3.5648 1.1918 3.5648.51378 0 3.4005-2.6606 5.2462-4.8353 1.2595-1.484 2.0673-2.2284 2.3151-2.1333.20934.0803.38061.29046.38061.46695 0 .43007-4.4839 5.4645-5.4037 6.0672-.40019.26221-.66609.53829-.59088.6135.22464.22463 5.1451-2.209 7.4309-3.6752 2.0602-1.3216 3.1474-1.6349 4.12-1.1873.27425.12621.58408-.10688 1.0028-.75439 1.0766-1.6649 2.219-1.673 2.6586-.019.12952.4874.16862-.82921.0953-3.2083-.12278-3.9829-.11709-4.0349.44074-4.0349.54306 0 .56547.11616.57435 2.9766.0103 3.336.5579 6.9644 1.1386 7.5451.33517.33517.46755.2379 1.0472-.76952.36496-.63426.97633-2.0462 1.3586-3.1376s.74659-2.1312.80961-2.3106c.063-.17944.30653-.2526.54114-.16257.41138.15785.40773.49235-.0212 1.951-.0951.32323.0837.38446.89632.30697.90537-.0863 1.1944.0559 2.6749 1.316 2.7966 2.3805 4.1951 3.3261 7.167 4.8463 1.5713.80374 2.9432 1.4614 3.0487 1.4614.10545 0 .12526-.87889.044-1.9531-.1851-2.4474-1.6795-6.9817-3.8829-11.781-1.2512-2.7255-1.549-3.5986-1.2847-3.7663.18926-.12005.41544-.22009.50263-.22232.0872-.002.70133 1.1568 1.3648 2.5756 2.9158 6.2357 4.1746 10.121 4.3628 13.465l.13609 2.4183 1.2222.54194c2.4203 1.0732 3.4802 1.1187 4.4093.18965zm-10.276-19.879c-1.7726-1.0441-1.8232-1.0571-1.7196-.44006.0517.30775-.0933.46302-.43238.46302-.68622 0-1.003-1.1861-.49983-1.8714.36236-.4935.44635-.4723 2.6104.65898 1.2298.64288 2.236 1.2534 2.236 1.3567 0 .10329-.14882.3111-.33072.46181-.23865.19773-.7576.0226-1.8639-.62906zm-16.97 14.762c-.18821-1.6395-.40909-3.0479-.49082-3.1296-.0817-.0817-.46553.33028-.85287.91559l-.70425 1.0642 1.1158 2.1447c.61369 1.1796 1.1515 2.109 1.1951 2.0654s-.0747-1.4207-.26293-3.0603zm39.861-6.6591c1.3502-.28544 4.1812-.63798 6.2913-.78341 7.4909-.5163 8.5013-1.4527 6.3065-5.8448-1.0782-2.1577-3.6875-4.7507-8.0418-7.9914-3.5511-2.643-4.5159-3.7439-4.2409-4.8396.0871-.34708 1.0031-1.5421 2.0355-2.6555 1.791-1.9315 3.285-4.4602 3.1002-5.2471-.12248-.5215-7.8839 3.6229-9.5179 5.0823-1.1951 1.0674-1.2833 1.2329-1.2833 2.4082 0 1.0507.19929 1.5654 1.1906 3.0748 1.0147 1.5449 1.1906 2.0101 1.1902 3.1481-.00053 1.8645-.66282 3.0457-2.1604 3.8532l-1.2347.66581.79411 1.054c1.277 1.695 2.0722 3.4631 2.0722 4.6078 0 1.329-1.2674 2.9284-2.3205 2.9284-.94609 0-.56255.28272.92711.68342 1.7184.46221 2.0733.45176 4.8916-.14407zm-7.467-1.0177c0-.11757.50137-.32593 1.1141-.46302.84257-.1885 1.2348-.4577 1.6091-1.1044.4913-.84886.49018-.86535-.15229-2.249-.35596-.7666-1.1083-2.0099-1.6719-2.763-1.0199-1.3628-1.0303-1.3685-2.237-1.2256-1.0976.13-5.2563-.26586-6.4011-.60931-.38318-.11495-.46302.0317-.46302.85027 0 .5552-.19508 1.2047-.44463 1.4805-.41777.46164-.41083.55043.115 1.4705.46952.82156 1.1577 1.2889 4.2744 2.903 3.6547 1.8926 4.2573 2.1346 4.2573 1.71zm-9.1567-7.0833c.27086-.70585-.11584-1.6988-.6616-1.6988-.58018 0-.60486.15078-.21001 1.2834.31879.91448.62422 1.06.87161.41533zm25.295-23.585c.70819-.90033.60046-1.3718-.4798-2.0998-.80313-.54123-1.8221-.82082-4.6782-1.2836l-1.0583-.1715 1.9136 1.8066c1.3484 1.273 1.9636 2.0592 2.0826 2.6617l.16898.85506.7502-.5342c.41262-.29381.99801-.84922 1.3009-1.2342zm-41.924-9.9958c1.6794-5.889 3.572-9.4321 6.4728-12.118l1.8149-1.6803-.65953-1.106c-.72731-1.2196-1.7822-1.897-2.9546-1.897-.95797 0-3.3582.81687-5.4039 1.8391-1.868.93345-2.1103.8764-4.3216-1.0172-1.9449-1.6655-2.8754-2.0133-4.3347-1.6204-.59156.15929-1.0756.39343-1.0756.52031 0 .12689.47917 1.0763 1.0648 2.1098 2.1473 3.7893 4.4808 10.38 5.6746 16.028.24609 1.1642.60976 2.6524.80816 3.3073.19839.65484.5012 1.7264.6729 2.3812l.31218 1.1906.62523-2.7781c.34388-1.528.93082-3.8497 1.3043-5.1594zm30.581 5.3465 3.0757.0549.13045-1.1574c.0771-.68449.80867-2.5116 1.7903-4.4717 1.9805-3.9545 2.2763-5.4756 1.2834-6.6-1.4315-1.6211-6.9443-2.0035-10.215-.70867-1.4628.579-1.6536.73764-1.6536 1.3743 0 1.1676-.72222 3.0108-2.8029 7.1532-1.0778 2.1458-1.9596 4.0966-1.9596 4.3352 0 .39222.34806.41131 3.638.19957 2.0009-.12878 5.0221-.20946 6.7137-.17928zm-61.571-6.9467c-.2298-.86615-.57555-2.3487-.76833-3.2946l-.35051-1.7198-.0249 1.7804c-.0163 1.1684.17116 2.3775.54541 3.5175.69807 2.1265 1.1774 1.8993.5983-.28352zm43.459.21429.83914-.62964-1.3864-2.6722-.32638.94274c-.17952.51851-.41009 1.5009-.51239 2.1831-.20477 1.3655-.20015 1.3661 1.386.17597zm-31.576-5.4003c.20446-.78186-.0854-2.0773-.46475-2.0773-.17141 0-1.2926-.47437-2.4915-1.0542-4.5121-2.182-6.2703-2.2555-7.5874-.31725-.36068.53079-.65517 1.0267-.65441 1.1021.00079.0754.80442.14846 1.7859.16244 1.4601.0208 2.1934.20784 4.0335 1.0288 4.3271 1.9305 5.1308 2.1032 5.3786 1.1554zm30.022-4.8591c-.20845-.63622-.53501-1.0844-.83176-1.1415-.55139-.10618-.52059.0694.45616 2.6004l.56158 1.4552.0786-.9333c.0432-.51332-.0758-1.4047-.26458-1.9808zm-27.19-.91371c.88798-1.7287 1.7454-2.9843 2.5346-3.7118.99235-.91471 1.1377-1.1656.86544-1.4937-.66393-.79999-1.8598-1.2146-2.9854-1.035-2.4221.38657-2.9637 1.5017-2.7138 5.5871.17375 2.8396.345 3.6442.72562 3.4089.12737-.0787.83545-1.3187 1.5735-2.7556zm-51.073 96.27 5.1594-1.1373 8.2021-.0196c7.7552-.0185 9.3927-.1337 9.3927-.66128 0-.12358-1.1096-1.1172-2.4658-2.2079-2.8737-2.3114-4.0445-3.5734-4.6932-5.0589-.74496-1.7059-1.0583-4.7077-.98183-9.4062.10137-6.2297.0967-6.236-5.942-7.9638-5.6425-1.6145-11.41-4.3484-14.145-6.7053-.60959-.52523-1.4306-1.6136-1.8244-2.4186l-.71607-1.4636-1.312 2.4626c-3.9866 7.4827-4.2643 8.2547-4.8366 13.443-.27582 2.5004-.80258 5.0799-1.756 8.599-2.0836 7.6905-1.9097 10.951.66892 12.545 1.9301 1.1929 2.7471 1.3478 6.519 1.236 2.9753-.0882 4.4336-.29578 8.7312-1.2431z" style="fill:#ff5555;stroke-width:.26458"/>
   </g>
   <g transform="matrix(.45081 0 0 .45081 -559.47 -599.63)" style="fill:#ffffff;stroke-width:1px" aria-label="in inter inter interne internet internet internet internet internet">
    <path d="m1957.3 795.51h-6.76v-29.4h6.76z" style="fill:#ffffff"/>
    <path d="m1978.3 766.15h6.76v29.36h-7.32l-9.6-17.12v17.12h-6.76v-29.28h7.36l9.56 17.08z" style="fill:#ffffff"/>
    <path d="m1957.3 827.61h-6.76v-29.4h6.76z" style="fill:#ffffff"/>
    <path d="m1978.3 798.25h6.76v29.36h-7.32l-9.6-17.12v17.12h-6.76v-29.28h7.36l9.56 17.08z" style="fill:#ffffff"/>
    <path d="m2005.6 798.13v6.8h-5.64v22.68h-6.76v-22.68h-5.6v-6.8z" style="fill:#ffffff"/>
    <path d="m2026.9 805.01h-12.08v4.44h9.8v6.76h-9.8v4.64h12.08v6.76h-18.84v-29.32l18.84-.04z" style="fill:#ffffff"/>
    <path d="m2039.2 820.01q-.52.08-1.04.12t-1.08.08v7.4h-6.76v-29.28h6.76q2.52.04 4.72.92t3.84 2.36q1.68 1.48 2.6 3.44.96 1.96.96 4.2 0 2.36-1 4.4-1 2-2.8 3.48l6.48 10.48h-7.96zm-2.12-6.6q1.08-.04 2.04-.36 1-.36 1.72-.92.76-.56 1.16-1.28.44-.76.44-1.6t-.44-1.56q-.4-.72-1.16-1.28-.72-.56-1.72-.88-.96-.36-2.04-.4z" style="fill:#ffffff"/>
    <path d="m1957.3 859.71h-6.76v-29.4h6.76z" style="fill:#ffffff"/>
    <path d="m1978.3 830.35h6.76v29.36h-7.32l-9.6-17.12v17.12h-6.76v-29.28h7.36l9.56 17.08z" style="fill:#ffffff"/>
    <path d="m2005.6 830.23v6.8h-5.64v22.68h-6.76v-22.68h-5.6v-6.8z" style="fill:#ffffff"/>
    <path d="m2026.9 837.11h-12.08v4.44h9.8v6.76h-9.8v4.64h12.08v6.76h-18.84v-29.32l18.84-.04z" style="fill:#ffffff"/>
    <path d="m2039.2 852.11q-.52.08-1.04.12t-1.08.08v7.4h-6.76v-29.28h6.76q2.52.04 4.72.92t3.84 2.36q1.68 1.48 2.6 3.44.96 1.96.96 4.2 0 2.36-1 4.4-1 2-2.8 3.48l6.48 10.48h-7.96zm-2.12-6.6q1.08-.04 2.04-.36 1-.36 1.72-.92.76-.56 1.16-1.28.44-.76.44-1.6t-.44-1.56q-.4-.72-1.16-1.28-.72-.56-1.72-.88-.96-.36-2.04-.4z" style="fill:#ffffff"/>
    <path d="m1957.3 891.81h-6.76v-29.4h6.76z" style="fill:#ffffff"/>
    <path d="m1978.3 862.45h6.76v29.36h-7.32l-9.6-17.12v17.12h-6.76v-29.28h7.36l9.56 17.08z" style="fill:#ffffff"/>
    <path d="m2005.6 862.33v6.8h-5.64v22.68h-6.76v-22.68h-5.6v-6.8z" style="fill:#ffffff"/>
    <path d="m2026.9 869.21h-12.08v4.44h9.8v6.76h-9.8v4.64h12.08v6.76h-18.84v-29.32l18.84-.04z" style="fill:#ffffff"/>
    <path d="m2039.2 884.21q-.52.08-1.04.12t-1.08.08v7.4h-6.76v-29.28h6.76q2.52.04 4.72.92t3.84 2.36q1.68 1.48 2.6 3.44.96 1.96.96 4.2 0 2.36-1 4.4-1 2-2.8 3.48l6.48 10.48h-7.96zm-2.12-6.6q1.08-.04 2.04-.36 1-.36 1.72-.92.76-.56 1.16-1.28.44-.76.44-1.6t-.44-1.56q-.4-.72-1.16-1.28-.72-.56-1.72-.88-.96-.36-2.04-.4z" style="fill:#ffffff"/>
    <path d="m2071.8 862.45h6.76v29.36h-7.32l-9.6-17.12v17.12h-6.76v-29.28h7.36l9.56 17.08z" style="fill:#ffffff"/>
    <path d="m2100.7 869.21h-12.08v4.44h9.8v6.76h-9.8v4.64h12.08v6.76h-18.84v-29.32l18.84-.04z" style="fill:#ffffff"/>
    <path d="m1957.3 923.91h-6.76v-29.4h6.76z" style="fill:#ffffff"/>
    <path d="m1978.3 894.55h6.76v29.36h-7.32l-9.6-17.12v17.12h-6.76v-29.28h7.36l9.56 17.08z" style="fill:#ffffff"/>
    <path d="m2005.6 894.43v6.8h-5.64v22.68h-6.76v-22.68h-5.6v-6.8z" style="fill:#ffffff"/>
    <path d="m2026.9 901.31h-12.08v4.44h9.8v6.76h-9.8v4.64h12.08v6.76h-18.84v-29.32l18.84-.04z" style="fill:#ffffff"/>
    <path d="m2039.2 916.31q-.52.08-1.04.12t-1.08.08v7.4h-6.76v-29.28h6.76q2.52.04 4.72.92t3.84 2.36q1.68 1.48 2.6 3.44.96 1.96.96 4.2 0 2.36-1 4.4-1 2-2.8 3.48l6.48 10.48h-7.96zm-2.12-6.6q1.08-.04 2.04-.36 1-.36 1.72-.92.76-.56 1.16-1.28.44-.76.44-1.6t-.44-1.56q-.4-.72-1.16-1.28-.72-.56-1.72-.88-.96-.36-2.04-.4z" style="fill:#ffffff"/>
    <path d="m2071.8 894.55h6.76v29.36h-7.32l-9.6-17.12v17.12h-6.76v-29.28h7.36l9.56 17.08z" style="fill:#ffffff"/>
    <path d="m2100.7 901.31h-12.08v4.44h9.8v6.76h-9.8v4.64h12.08v6.76h-18.84v-29.32l18.84-.04z" style="fill:#ffffff"/>
    <path d="m2121 894.43v6.8h-5.64v22.68h-6.76v-22.68h-5.6v-6.8z" style="fill:#ffffff"/>
    <path d="m1957.3 956.01h-6.76v-29.4h6.76z" style="fill:#ffffff"/>
    <path d="m1978.3 926.65h6.76v29.36h-7.32l-9.6-17.12v17.12h-6.76v-29.28h7.36l9.56 17.08z" style="fill:#ffffff"/>
    <path d="m2005.6 926.53v6.8h-5.64v22.68h-6.76v-22.68h-5.6v-6.8z" style="fill:#ffffff"/>
    <path d="m2026.9 933.41h-12.08v4.44h9.8v6.76h-9.8v4.64h12.08v6.76h-18.84v-29.32l18.84-.04z" style="fill:#ffffff"/>
    <path d="m2039.2 948.41q-.52.08-1.04.12t-1.08.08v7.4h-6.76v-29.28h6.76q2.52.04 4.72.92t3.84 2.36q1.68 1.48 2.6 3.44.96 1.96.96 4.2 0 2.36-1 4.4-1 2-2.8 3.48l6.48 10.48h-7.96zm-2.12-6.6q1.08-.04 2.04-.36 1-.36 1.72-.92.76-.56 1.16-1.28.44-.76.44-1.6t-.44-1.56q-.4-.72-1.16-1.28-.72-.56-1.72-.88-.96-.36-2.04-.4z" style="fill:#ffffff"/>
    <path d="m2071.8 926.65h6.76v29.36h-7.32l-9.6-17.12v17.12h-6.76v-29.28h7.36l9.56 17.08z" style="fill:#ffffff"/>
    <path d="m2100.7 933.41h-12.08v4.44h9.8v6.76h-9.8v4.64h12.08v6.76h-18.84v-29.32l18.84-.04z" style="fill:#ffffff"/>
    <path d="m2121 926.53v6.8h-5.64v22.68h-6.76v-22.68h-5.6v-6.8z" style="fill:#ffffff"/>
    <path d="m1957.3 988.11h-6.76v-29.4h6.76z" style="fill:none"/>
    <path d="m1978.3 958.75h6.76v29.36h-7.32l-9.6-17.12v17.12h-6.76v-29.28h7.36l9.56 17.08z" style="fill:none"/>
    <path d="m2005.6 958.63v6.8h-5.64v22.68h-6.76v-22.68h-5.6v-6.8z" style="fill:#ffffff"/>
    <path d="m2026.9 965.51h-12.08v4.44h9.8v6.76h-9.8v4.64h12.08v6.76h-18.84v-29.32l18.84-.04z" style="fill:#ffffff"/>
    <path d="m2039.2 980.51q-.52.08-1.04.12t-1.08.08v7.4h-6.76v-29.28h6.76q2.52.04 4.72.92t3.84 2.36q1.68 1.48 2.6 3.44.96 1.96.96 4.2 0 2.36-1 4.4-1 2-2.8 3.48l6.48 10.48h-7.96zm-2.12-6.6q1.08-.04 2.04-.36 1-.36 1.72-.92.76-.56 1.16-1.28.44-.76.44-1.6t-.44-1.56q-.4-.72-1.16-1.28-.72-.56-1.72-.88-.96-.36-2.04-.4z" style="fill:#ffffff"/>
    <path d="m2071.8 958.75h6.76v29.36h-7.32l-9.6-17.12v17.12h-6.76v-29.28h7.36l9.56 17.08z" style="fill:none"/>
    <path d="m2100.7 965.51h-12.08v4.44h9.8v6.76h-9.8v4.64h12.08v6.76h-18.84v-29.32l18.84-.04z" style="fill:none"/>
    <path d="m2121 958.63v6.8h-5.64v22.68h-6.76v-22.68h-5.6v-6.8z" style="fill:none"/>
    <path d="m1957.3 1020.2h-6.76v-29.4h6.76z" style="fill:none"/>
    <path d="m1978.3 990.85h6.76v29.36h-7.32l-9.6-17.12v17.12h-6.76v-29.28h7.36l9.56 17.08z" style="fill:none"/>
    <path d="m2005.6 990.73v6.8h-5.64v22.68h-6.76v-22.68h-5.6v-6.8z" style="fill:none"/>
    <path d="m2026.9 997.61h-12.08v4.44h9.8v6.76h-9.8v4.64h12.08v6.76h-18.84v-29.32l18.84-.04z" style="fill:none"/>
    <path d="m2039.2 1012.6q-.52.08-1.04.12t-1.08.08v7.4h-6.76v-29.28h6.76q2.52.04 4.72.92t3.84 2.36q1.68 1.48 2.6 3.44.96 1.96.96 4.2 0 2.36-1 4.4-1 2-2.8 3.48l6.48 10.48h-7.96zm-2.12-6.6q1.08-.04 2.04-.36 1-.36 1.72-.92.76-.56 1.16-1.28.44-.76.44-1.6t-.44-1.56q-.4-.72004-1.16-1.28-.72-.56-1.72-.88-.96-.36-2.04-.4z" style="fill:none"/>
    <path d="m2071.8 990.85h6.76v29.36h-7.32l-9.6-17.12v17.12h-6.76v-29.28h7.36l9.56 17.08z" style="fill:#ffffff"/>
    <path d="m2100.7 997.61h-12.08v4.44h9.8v6.76h-9.8v4.64h12.08v6.76h-18.84v-29.32l18.84-.04z" style="fill:#ffffff"/>
    <path d="m2121 990.73v6.8h-5.64v22.68h-6.76v-22.68h-5.6v-6.8z" style="fill:#ffffff"/>
    <path d="m1957.3 1052.3h-6.76v-29.4h6.76z" style="fill:none"/>
    <path d="m1978.3 1022.9h6.76v29.36h-7.32l-9.6-17.12v17.12h-6.76v-29.28h7.36l9.56 17.08z" style="fill:none"/>
    <path d="m2005.6 1022.8v6.8h-5.64v22.68h-6.76v-22.68h-5.6v-6.8z" style="fill:none"/>
    <path d="m2026.9 1029.7h-12.08v4.44h9.8v6.76h-9.8v4.64h12.08v6.76h-18.84v-29.32l18.84-.04z" style="fill:none"/>
    <path d="m2039.2 1044.7q-.52.08-1.04.12t-1.08.08v7.4h-6.76v-29.28h6.76q2.52.04 4.72.92t3.84 2.36q1.68 1.48 2.6 3.44.96 1.96.96 4.2 0 2.36-1 4.4-1 2-2.8 3.48l6.48 10.48h-7.96zm-2.12-6.6q1.08-.04 2.04-.36 1-.36 1.72-.92.76-.56 1.16-1.28.44-.76.44-1.6t-.44-1.56q-.4-.72-1.16-1.28-.72-.56-1.72-.88-.96-.36-2.04-.4z" style="fill:none"/>
    <path d="m2071.8 1022.9h6.76v29.36h-7.32l-9.6-17.12v17.12h-6.76v-29.28h7.36l9.56 17.08z" style="fill:#ffffff"/>
    <path d="m2100.7 1029.7h-12.08v4.44h9.8v6.76h-9.8v4.64h12.08v6.76h-18.84v-29.32l18.84-.04z" style="fill:#ffffff"/>
    <path d="m2121 1022.8v6.8h-5.64v22.68h-6.76v-22.68h-5.6v-6.8z" style="fill:#ffffff"/>
   </g>
  </g>
 </g>
</svg>
