P_/¯¯-____¯//_-/-//-____/_//__//¯___/_// --_//___///¯_/¯¯-____ /_/ _//___/_// __//¯_/___/_///_/ _//_/¯¯-____¯//_-/-/__/¯_/-/¯¯//_/_____/_//¯¯/__-_/-/¯¯ó¯//_-/ /¯_/¯___/¯¯-____ /_/ _//___/_// /____/_//--_//___///¯_/-/¯¯¯//_-/___/_//__//¯_/_/-/¯¯___/_// /¯-¯/___/_//__//¯_/í___/_// ___///¯¯//_-/ ///_-___/_//__//¯_/___/_//-/__/¯_/¯¯-____ _/¯¯-____¯//_-/ ¯//_-/___///¯_/¯¯-____-//-_-/__/¯__//¯_/___/_//-//-_ ___/_//¯¯/__--/__/¯_/-/¯¯/¯/¯-___/-/¯¯/¯_/¯_____/_///¯_/¯___/¯¯-____-//-_, ///_-_/¯¯-______//¯_/__-// ¯//_-/_/-/¯¯ _/¯¯-____¯//_-/ ///_-___/_//¯//_-//¯_/¯___/¯¯-____/__/-/¯¯___/_// / /__/¯¯-____¯//_-/_/¯¯-______//¯_/___/_///_/ _//_/-/¯¯//_/_____/_///¯_/¯_____/_// /____///¯¯//_-//¯_/¯___/-/¯¯___/_///_/ _// /_/ _//___/_//-//-_ -/__/¯__//¯_/___/_//__//¯___/_///___/_///¯_/¯____-//__//¯_/___/_//-//-_ ¯¯/__-__-/// /_¯//_-/_/-/¯¯-/__/¯_/-/¯¯/¯/¯-_____/_//-//-_ /¯_/¯___/¯¯-____/___/_///___-//-//-_ /¯_/¯___/¯¯-____ ///_-__//¯_/__-///¯_/¯_____///¯¯¯/__-_/-/¯¯__//¯_/ (_// /_á-//-_ _/¯¯-____¯//_-/ _/¯¯-____-//-_-/__/¯_/¯¯-____ /___-///__/¯¯-____¯//_-/-/__/¯__-// /¯_/¯___/¯¯-____ /¯/¯-___/-/¯¯__//¯_/-/__/¯___///¯___/_///_/ _//_/-/¯¯//_/_____/_//¯¯/__-_/-/¯¯ó¯//_-/), _// _/¯¯-____/_/ _// ///_-___///¯¯//_-/-/__/¯__-// _/-/¯¯¯//_-/-/__/¯_/¯¯-______//¯_/_/¯¯-____-//-____/_//¯//_-/-/__/¯_/¯¯-____ /¯_/¯___/¯¯-____ _/¯¯-____-//-_-/__/¯__-// _/¯¯-____-//-_ --_//___///¯_/¯¯-____ ___/_///¯_/¯___/¯¯-____/_á-//-_ /¯_/¯___/¯¯-____ ¯//_-/___///¯_/¯¯-____-//-_-/__/¯__//¯_/___/_//-//-_ /__/¯¯-____¯//_-/-/__/¯_/¯¯-____-//-_, /_/ _//___/_// ¯¯/__-_/-/¯¯__//¯_/¯¯-______//¯_/¯//_-/é-/__/¯_/-/¯¯¯¯/__-___/_// ___///¯-/__/¯_/-/¯¯/_/ _//_/-/¯¯//_/_____/_// /_/ _//__-//-//-_ ¯¯/__-___/_///__/-/¯¯¯//_-/__-//-//-_ /¯_/¯___/¯¯-____ _/-/¯¯¯//_-/-/__/¯_/¯¯-______//¯_/¯//_-/_/¯¯-____-/__/¯ ///_-___/_//__//¯_/___/_// -//-____///¯ /¯_/¯___/¯¯-____-//-_///_-/_/ _//_/-/¯¯_/¯¯-____/ /____///¯_/¯¯-____. M_/¯¯-____ ///_-__//¯_/_/¯¯-____/ /____///¯¯//_-/-/__/¯__-//; -//-__/-/¯¯ --_//___///¯_/¯¯-______//¯_/_/¯¯-____/___-//-//-_ ///_-___/_//__//¯_/___/_//__//¯_/ -/__/¯__-///¯_/¯____-// _// ¯¯/__-___/_///___//¯_/-/¯¯___/_//__//¯_//_/ _//__-//, ¯//_-/__-// /¯-¯/___/_//__//¯__//¯_/í___/_// --_//___///¯_/¯¯-____ ///_-___/_//__//¯_/___/_//__//¯_/ _/-/¯¯¯//_-/-/__/¯_/¯¯-______//¯_/¯//_-/_/¯¯-____-/__/¯?¿--_//___///¯_/¯¯-______//¯_/é/___-//-//-_ ___/_/////_-___/_/// /____/_//__//¯_/ _/-/¯¯¯//_-/-/__/¯_/¯¯-______//¯_/¯//_-/_/¯¯-____-/__/¯?, _/¯¯-____-//-_-/__/¯___/_///___-//-//-_ ___/_//-/__/¯__//¯_/___/_/////_-___/_///¯_/¯_____/_//-//-_ _/¯¯-____¯//_-/-/__/¯__//¯_/_/¯¯-____ ¯//_-/___///¯_/¯¯-____-//-_-/__/¯__//¯_/___/_//-//-_ /¯-¯/_/¯¯-______//¯_/__//¯_/___/_///__/-/¯¯_/¯¯-____¯//_-/-/__/¯___/_//-//-_ /¯_/¯___/¯¯-____ /_/ _//_/-/¯¯__//¯_/¯¯-______//¯_/___/_//¯¯/__-_/-/¯¯ó¯//_-/ (___/_//___///¯¯//_-/--_//___///¯_/¯¯-____ ¯//_-/_/-/¯¯ -//-___-//¯//_-/ -/__/¯___/_//¯//_-/ ¯//_-/___///¯_/¯¯-____-//-_-/__/¯__//¯_/___/_//-//-_).

M_/-/¯¯ /____/_//_//__-//__//¯_/ /__/-/¯¯_/¯¯-____/¯_/¯____-// _/¯¯-____-//-_ ¯//_-/__-// /¯_/¯_____/_//__//¯_//__/¯¯-____ ¯¯/__-___///¯_/¯¯-____¯//_-/-/__/¯___/_// ¯¯/__-___///¯___/_//¯//_-//¯_/¯____-// -//-__/¯¯-_______/_// _/¯¯-____/_/ _// _¯/___/-/¯¯¯//_-/ /¯_/¯___/¯¯-____ /_/ _//___/_// _/¯¯-____-//-_///_-_/¯¯-____¯¯/__-_/-/¯¯_/¯¯-____ _// _//__-// _/¯¯-____-//-_-/__/¯é /__/-/¯¯__//¯_/___/_//¯//_-//¯_/¯____-// ///_-__-//__//¯_/ /_/ _//___/_// /¯/¯-___/¯¯-____¯//_-/-/__/¯___/_//¯//_-/___/_// _// ___/_/////_-__//¯_/_/¯¯-____-/__/¯___/_//¯//_-//¯_/¯____-// _/¯¯-____-//-_-/__/¯___/_//-//-_ /__/¯¯-____¯¯/__-á¯//_-/_/-/¯¯¯¯/__-___/_//-//-_ -/__/¯_/¯¯-____¯¯/__-/_/ _//___/_//-//-_ _/¯¯-____¯//_-/ -//-__/-/¯¯/___//¯_/-/¯¯__-//-//-__/-/¯¯-//-_ ¯¯/__-__-//¯//_-/ /_/ _//___/_//-//-_ ///_-___/_//¯//_-/-/__/¯___/_///_/ _///_/ _//___/_//-//-_, -//-__/-/¯¯¯//_-/ ///_-__-///¯_/¯___/¯¯-______//¯_/ ___/_/////_-__//¯_/_/¯¯-____¯¯/__-_/-/¯¯___/_//__//¯_/ _/¯¯-____/_/ _// _¯/___/-/¯¯¯//_-/___/_///_/ _// /¯_/¯___/¯¯-____ /_/ _//___/_// ¯¯/__-_/-/¯¯/¯/¯-___/-/¯¯/_/ _//_/-/¯¯//_/_____/_//¯¯/__-_/-/¯¯ó¯//_-/.
